{
    "navigation" : [
        {
            "label"    : "Play the game!",
            "page"     : "play-game",
            "category" : "het_spel"
        },
        {
            "label"    : "Contact",
            "page"     : "contact",
            "category" : "contact_info"
        }

    ]
}

