<?xml version="1.0" encoding="utf-8"?>
<!-- Generator: Adobe Illustrator 18.1.1, SVG Export Plug-In . SVG Version: 6.00 Build 0)  -->
<svg version="1.1" id="Laag_1" xmlns="http://www.w3.org/2000/svg" xmlns:xlink="http://www.w3.org/1999/xlink" x="0px" y="0px"
	 viewBox="0 237 252 90" enable-background="new 0 237 252 90" xml:space="preserve">
<path fill="none" stroke="#29A3C0" stroke-width="6" stroke-linecap="round" stroke-linejoin="round" stroke-miterlimit="10" d="
	M233.7,247.9v52.7c0,6-4.9,10.9-10.9,10.9H13.4"/>
<rect x="11.5" y="250" fill="none" width="219.5" height="63.3"/>
<text transform="matrix(1 0 0 1 11.4883 295.9517)" font-family="'Sathu'" font-size="58.3822">traf</text>
<text transform="matrix(1 0 0 1 11.4883 295.9517)" fill="none" stroke="#000000" stroke-width="3" stroke-linecap="round" stroke-linejoin="round" stroke-miterlimit="10" font-family="'Sathu'" font-size="58.3822">traf</text>
<text transform="matrix(1 0 0 1 115.0254 295.9517)" fill="#29A3C0" font-family="'Sathu'" font-size="58.3822">trav</text>
<text transform="matrix(1 0 0 1 115.0254 295.9517)" fill="none" stroke="#29A3C0" stroke-width="3" stroke-linecap="round" stroke-linejoin="round" stroke-miterlimit="10" font-family="'Sathu'" font-size="58.3822">trav</text>
<g>
	<path fill="#FFFFFF" d="M233.7,291.7c-4.1,0-7.5-3.4-7.5-7.5c0-4.1,3.4-7.5,7.5-7.5c4.1,0,7.5,3.4,7.5,7.5
		C241.1,288.3,237.8,291.7,233.7,291.7z"/>
	<path fill="#29A3C0" d="M233.7,279.5c2.6,0,4.7,2.1,4.7,4.7s-2.1,4.7-4.7,4.7c-2.6,0-4.7-2.1-4.7-4.7S231.1,279.5,233.7,279.5
		 M233.7,274c-5.7,0-10.2,4.6-10.2,10.2c0,5.7,4.6,10.2,10.2,10.2c5.7,0,10.2-4.6,10.2-10.2C243.9,278.6,239.3,274,233.7,274
		L233.7,274z"/>
</g>
<g>
	<path fill="#FFFFFF" d="M110.2,319c-4.1,0-7.5-3.4-7.5-7.5c0-4.1,3.4-7.5,7.5-7.5c4.1,0,7.5,3.4,7.5,7.5
		C117.7,315.6,114.3,319,110.2,319z"/>
	<path fill="#29A3C0" d="M110.2,306.9c2.6,0,4.7,2.1,4.7,4.7c0,2.6-2.1,4.7-4.7,4.7s-4.7-2.1-4.7-4.7
		C105.5,309,107.6,306.9,110.2,306.9 M110.2,301.4c-5.7,0-10.2,4.6-10.2,10.2c0,5.7,4.6,10.2,10.2,10.2c5.7,0,10.2-4.6,10.2-10.2
		C120.4,306,115.9,301.4,110.2,301.4L110.2,301.4z"/>
</g>
</svg>
